{
"name": "deepmind","children": [
 {
"name": "ai-safety-gridworlds","children": [
 {"name": "miljanm", "size": 2}]
},
{
"name": "alewrap","children": [
 {"name": "akfidjeland", "size": 1}]
},
{
"name": "AQuA","children": [
 {"name": "wlin12", "size": 1}]
},
{
"name": "classic","children": [
 {"name": "d11", "size": 19},
{"name": "dmjlm", "size": 1},
{"name": "fastturtle", "size": 1},
{"name": "akfidjeland", "size": 1}]
},
{
"name": "dnc","children": [
 {"name": "dm-jrae", "size": 3},
{"name": "Shuolongbj", "size": 2},
{"name": "jramapuram", "size": 1}]
},
{
"name": "dqn","children": [
 {"name": "akfidjeland", "size": 2}]
},
{
"name": "dsprites-dataset","children": [
 {"name": "Azhag", "size": 3}]
},
{
"name": "kapitan","children": [
 {"name": "ramaro", "size": 30},
{"name": "gburiola", "size": 18},
{"name": "ademariag", "size": 8}]
},
{
"name": "lab","children": [
 {"name": "decster", "size": 1},
{"name": "tkoeppe", "size": 32},
{"name": "SimsGautam", "size": 1},
{"name": "charlesbeattie", "size": 12}]
},
{
"name": "learning-to-learn","children": [
 {"name": "choas", "size": 1},
{"name": "ncoronges", "size": 1},
{"name": "sergomezcol", "size": 11},
{"name": "normanheckscher", "size": 5},
{"name": "guillaume-chevalier", "size": 1}]
},
{
"name": "lua-pprint","children": [
 {"name": "d11", "size": 3},
{"name": "jucor", "size": 2},
{"name": "rosejn", "size": 3},
{"name": "zoso95", "size": 1},
{"name": "alschua", "size": 1},
{"name": "kosklain", "size": 2},
{"name": "timharley", "size": 1},
{"name": "sracaniere", "size": 1},
{"name": "akfidjeland", "size": 13},
{"name": "sergomezcol", "size": 2},
{"name": "GeorgOstrovski", "size": 2}]
},
{
"name": "mnist-cluttered","children": [
 {"name": "akfidjeland", "size": 1}]
},
{
"name": "plplot-ffi","children": [
 {"name": "alschua", "size": 1},
{"name": "rich12321", "size": 2},
{"name": "sergomezcol", "size": 18}]
},
{
"name": "pycolab","children": [
 {"name": "stepleton", "size": 6}]
},
{
"name": "pysc2","children": [
 {"name": "brean", "size": 1},
{"name": "heiner", "size": 3},
{"name": "cclauss", "size": 2},
{"name": "tewalds", "size": 34},
{"name": "luismesas", "size": 1},
{"name": "tomekowal", "size": 1},
{"name": "SafPlusPlus", "size": 1}]
},
{
"name": "rc-data","children": [
 {"name": "blixt", "size": 1},
{"name": "petrux", "size": 3},
{"name": "ogrisel", "size": 1},
{"name": "pmarais", "size": 1},
{"name": "lespeholt", "size": 12},
{"name": "karlmoritz", "size": 1},
{"name": "akfidjeland", "size": 1}]
},
{
"name": "sonnet","children": [
 {"name": "bfredl", "size": 1},
{"name": "dekked", "size": 1},
{"name": "fbesse", "size": 1},
{"name": "vierja", "size": 1},
{"name": "albertz", "size": 1},
{"name": "fvioladm", "size": 2},
{"name": "kosklain", "size": 6},
{"name": "a-googler", "size": 91},
{"name": "tmramalho", "size": 1},
{"name": "fastturtle", "size": 2},
{"name": "sracaniere", "size": 3},
{"name": "dustinvtran", "size": 1},
{"name": "diegolascasas", "size": 27},
{"name": "justheuristic", "size": 1},
{"name": "malcolmreynolds", "size": 31},
{"name": "guillaume-chevalier", "size": 1}]
},
{
"name": "spaceship_dataset","children": [
 {"name": "pascanur", "size": 4}]
},
{
"name": "strict","children": [
 {"name": "fidlej", "size": 5},
{"name": "alschua", "size": 1},
{"name": "GeorgOstrovski", "size": 1}]
},
{
"name": "torch-cephes","children": [
 {"name": "d11", "size": 49},
{"name": "rnk", "size": 1},
{"name": "dpfau", "size": 6},
{"name": "jjh42", "size": 4},
{"name": "jucor", "size": 79},
{"name": "alschua", "size": 3},
{"name": "iassael", "size": 2},
{"name": "akfidjeland", "size": 1},
{"name": "alvinlschua", "size": 1}]
},
{
"name": "torch-distributions","children": [
 {"name": "d11", "size": 83},
{"name": "dpfau", "size": 33},
{"name": "jucor", "size": 97},
{"name": "fbesse", "size": 7},
{"name": "mevGDM", "size": 1},
{"name": "alschua", "size": 1},
{"name": "koraykv", "size": 1},
{"name": "tkoeppe", "size": 1},
{"name": "davidsaxton", "size": 1},
{"name": "sergomezcol", "size": 1},
{"name": "GeorgOstrovski", "size": 4},
{"name": "IoannisAntonoglou", "size": 1}]
},
{
"name": "torch-dokx","children": [
 {"name": "d11", "size": 310},
{"name": "yozw", "size": 1},
{"name": "alschua", "size": 1},
{"name": "tkoeppe", "size": 1},
{"name": "rachtsingh", "size": 1},
{"name": "alykhantejani", "size": 1}]
},
{
"name": "torch-hdf5","children": [
 {"name": "d11", "size": 118},
{"name": "didw", "size": 1},
{"name": "rewonc", "size": 2},
{"name": "alschua", "size": 1},
{"name": "anibali", "size": 1},
{"name": "soumith", "size": 5},
{"name": "ilija139", "size": 2},
{"name": "ivendrov", "size": 1},
{"name": "jagapiou", "size": 2},
{"name": "jashmenn", "size": 2},
{"name": "colesbury", "size": 1},
{"name": "ffmpbgrnn", "size": 1},
{"name": "kadamwhite", "size": 1},
{"name": "akfidjeland", "size": 2},
{"name": "PaulGwamanda", "size": 1},
{"name": "GeorgOstrovski", "size": 2}]
},
{
"name": "torch-oocairo","children": [
 {"name": "alschua", "size": 1},
{"name": "tmramalho", "size": 1},
{"name": "akfidjeland", "size": 8},
{"name": "sergomezcol", "size": 2},
{"name": "GeoffRichards", "size": 69}]
},
{
"name": "torch-randomkit","children": [
 {"name": "d11", "size": 77},
{"name": "jucor", "size": 60},
{"name": "Gueust", "size": 1},
{"name": "fidlej", "size": 2},
{"name": "alschua", "size": 1},
{"name": "jagapiou", "size": 2},
{"name": "srsriram", "size": 2},
{"name": "timharley", "size": 2},
{"name": "tmramalho", "size": 3},
{"name": "fastturtle", "size": 2},
{"name": "akfidjeland", "size": 5},
{"name": "alvinlschua", "size": 2},
{"name": "IoannisAntonoglou", "size": 1}]
},
{
"name": "torch-totem","children": [
 {"name": "d11", "size": 1},
{"name": "yozw", "size": 4},
{"name": "jjh42", "size": 1},
{"name": "fbesse", "size": 2},
{"name": "fidlej", "size": 7},
{"name": "mevGDM", "size": 1},
{"name": "dm-jrae", "size": 5},
{"name": "egrefen", "size": 1},
{"name": "soumith", "size": 2},
{"name": "jagapiou", "size": 3},
{"name": "timharley", "size": 13},
{"name": "fzvinicius", "size": 2},
{"name": "karlmoritz", "size": 1},
{"name": "akfidjeland", "size": 42},
{"name": "davidsaxton", "size": 1},
{"name": "sergomezcol", "size": 11},
{"name": "GeorgOstrovski", "size": 29},
{"name": "clementfarabet", "size": 1},
{"name": "malcolmreynolds", "size": 1},
{"name": "IoannisAntonoglou", "size": 3}]
},
{
"name": "unsup-queries-data","children": [
 {"name": "tkocisky", "size": 1}]
},
{
"name": "xitari","children": [
 {"name": "tkoeppe", "size": 1},
{"name": "ppwwyyxx", "size": 1},
{"name": "akfidjeland", "size": 6},
{"name": "jhancock1975", "size": 1}]
}
]
}
